{"failedCount":0,"prefixedPath":"classpath:tests\/firstTest.feature","packageQualifiedName":"tests.firstTest","loopIndex":-1,"relativePath":"tests\/firstTest.feature","scenarioResults":[{"sectionIndex":0,"stepResults":[{"result":{"nanos":57862700,"millis":57.8627,"status":"passed"},"step":{"line":4,"prefix":"Given","index":0,"text":"url 'https:\/\/reqres.in\/api\/users?page=2'"}},{"result":{"nanos":895481000,"millis":895.481,"status":"passed"},"step":{"line":5,"prefix":"When","index":1,"text":"method GET"},"stepLog":"00:16:29.915 request:\n1 > GET https:\/\/reqres.in\/api\/users?page=2\n1 > Host: reqres.in\n1 > Connection: Keep-Alive\n1 > User-Agent: Apache-HttpClient\/4.5.13 (Java\/1.8.0_291)\n1 > Accept-Encoding: gzip,deflate\n\n\n00:16:30.262 response time in milliseconds: 324\n1 < 200\n1 < Date: Fri, 06 Jan 2023 23:16:30 GMT\n1 < Content-Type: application\/json; charset=utf-8\n1 < Transfer-Encoding: chunked\n1 < Connection: keep-alive\n1 < X-Powered-By: Express\n1 < Access-Control-Allow-Origin: *\n1 < Etag: W\/\"406-ut0vzoCuidvyMf8arZpMpJ6ZRDw\"\n1 < Via: 1.1 vegur\n1 < Cache-Control: max-age=14400\n1 < CF-Cache-Status: HIT\n1 < Age: 6140\n1 < Report-To: {\"endpoints\":[{\"url\":\"https:\\\/\\\/a.nel.cloudflare.com\\\/report\\\/v3?s=wxEhZRG%2FpdzyJ1KVjxQe7V0iaoZHutSyenVKdHD8tF4yzXkoX8JTAUlup4rQiArp0UK6i5hsxOFvZI26gdlb7Du8DVpqRCwxxzfxnACU0SCbNQTBMFvLduKDbA%3D%3D\"}],\"group\":\"cf-nel\",\"max_age\":604800}\n1 < NEL: {\"success_fraction\":0,\"report_to\":\"cf-nel\",\"max_age\":604800}\n1 < Vary: Accept-Encoding\n1 < Server: cloudflare\n1 < CF-RAY: 785829687d8b6904-FRA\n{\"per_page\":6,\"total\":12,\"data\":[{\"last_name\":\"Lawson\",\"id\":7,\"avatar\":\"https:\\\/\\\/reqres.in\\\/img\\\/faces\\\/7-image.jpg\",\"first_name\":\"Michael\",\"email\":\"michael.lawson@reqres.in\"},{\"last_name\":\"Ferguson\",\"id\":8,\"avatar\":\"https:\\\/\\\/reqres.in\\\/img\\\/faces\\\/8-image.jpg\",\"first_name\":\"Lindsay\",\"email\":\"lindsay.ferguson@reqres.in\"},{\"last_name\":\"Funke\",\"id\":9,\"avatar\":\"https:\\\/\\\/reqres.in\\\/img\\\/faces\\\/9-image.jpg\",\"first_name\":\"Tobias\",\"email\":\"tobias.funke@reqres.in\"},{\"last_name\":\"Fields\",\"id\":10,\"avatar\":\"https:\\\/\\\/reqres.in\\\/img\\\/faces\\\/10-image.jpg\",\"first_name\":\"Byron\",\"email\":\"byron.fields@reqres.in\"},{\"last_name\":\"Edwards\",\"id\":11,\"avatar\":\"https:\\\/\\\/reqres.in\\\/img\\\/faces\\\/11-image.jpg\",\"first_name\":\"George\",\"email\":\"george.edwards@reqres.in\"},{\"last_name\":\"Howell\",\"id\":12,\"avatar\":\"https:\\\/\\\/reqres.in\\\/img\\\/faces\\\/12-image.jpg\",\"first_name\":\"Rachel\",\"email\":\"rachel.howell@reqres.in\"}],\"page\":2,\"total_pages\":2,\"support\":{\"text\":\"To keep ReqRes free, contributions towards server costs are appreciated!\",\"url\":\"https:\\\/\\\/reqres.in\\\/#support-heading\"}}\n"},{"result":{"nanos":61257000,"millis":61.257,"status":"passed"},"step":{"line":6,"prefix":"When","index":2,"text":"print response"},"stepLog":"00:16:30.324 [print] {\n  \"per_page\": 6,\n  \"total\": 12,\n  \"data\": [\n    {\n      \"last_name\": \"Lawson\",\n      \"id\": 7,\n      \"avatar\": \"https:\/\/reqres.in\/img\/faces\/7-image.jpg\",\n      \"first_name\": \"Michael\",\n      \"email\": \"michael.lawson@reqres.in\"\n    },\n    {\n      \"last_name\": \"Ferguson\",\n      \"id\": 8,\n      \"avatar\": \"https:\/\/reqres.in\/img\/faces\/8-image.jpg\",\n      \"first_name\": \"Lindsay\",\n      \"email\": \"lindsay.ferguson@reqres.in\"\n    },\n    {\n      \"last_name\": \"Funke\",\n      \"id\": 9,\n      \"avatar\": \"https:\/\/reqres.in\/img\/faces\/9-image.jpg\",\n      \"first_name\": \"Tobias\",\n      \"email\": \"tobias.funke@reqres.in\"\n    },\n    {\n      \"last_name\": \"Fields\",\n      \"id\": 10,\n      \"avatar\": \"https:\/\/reqres.in\/img\/faces\/10-image.jpg\",\n      \"first_name\": \"Byron\",\n      \"email\": \"byron.fields@reqres.in\"\n    },\n    {\n      \"last_name\": \"Edwards\",\n      \"id\": 11,\n      \"avatar\": \"https:\/\/reqres.in\/img\/faces\/11-image.jpg\",\n      \"first_name\": \"George\",\n      \"email\": \"george.edwards@reqres.in\"\n    },\n    {\n      \"last_name\": \"Howell\",\n      \"id\": 12,\n      \"avatar\": \"https:\/\/reqres.in\/img\/faces\/12-image.jpg\",\n      \"first_name\": \"Rachel\",\n      \"email\": \"rachel.howell@reqres.in\"\n    }\n  ],\n  \"page\": 2,\n  \"total_pages\": 2,\n  \"support\": {\n    \"text\": \"To keep ReqRes free, contributions towards server costs are appreciated!\",\n    \"url\": \"https:\/\/reqres.in\/#support-heading\"\n  }\n}\n \n"},{"result":{"nanos":11000,"millis":0.011,"status":"passed"},"step":{"line":7,"prefix":"Then","index":3,"text":"status 200"}}],"executorName":"main","line":3,"name":"Test Sample get Api","description":"","durationMillis":1014.6117,"startTime":1673046989302,"failed":false,"refId":"[1:3]","endTime":1673046990325,"exampleIndex":-1}],"callDepth":0,"name":"Simple Api Test","description":"","resultDate":"2023-01-07 12:16:30 AM","durationMillis":1014.6117,"passedCount":1}